{
  "swagger" : "2.0",
  "info" : {
    "description" : "iRetailCloudServer - облачный сервер для обмена данными продуктов iretail.",
    "version" : "3.x.x",
    "title" : "iRetailCloudServer",
    "contact" : {
      "email" : "sergei.dudko@farmin.by"
    }
  },
  "basePath" : "/",
  "tags" : [ {
    "name" : "v3",
    "description" : "iRetailCloudServer v3"
  }, {
    "name" : "v1",
    "description" : "iRetailCloudServer v1,v2 (поддержка старого api)"
  } ],
  "schemes" : [ "https", "http" ],
  "paths" : {
    "/v3/query" : {
      "post" : {
        "tags" : [ "v3" ],
        "summary" : "Загрузка данных из iRetailCloudServer",
        "operationId" : "v3_query",
        "consumes" : [ "application/json" ],
        "produces" : [ "application/json" ],
        "parameters" : [ {
          "in" : "body",
          "name" : "body",
          "description" : "Тело поискового запроса в формате json",
          "required" : true,
          "schema" : {
            "$ref" : "#/definitions/Query"
          }
        }, {
          "name" : "ics-cache-hash",
          "in" : "header",
          "description" : "sha1-хэш запроса (служебное)",
          "required" : false,
          "type" : "string",
          "pattern" : "^[a-f0-9{40}]+$"
        }, {
          "name" : "ics-cache-hashresult",
          "in" : "header",
          "description" : "sha1-хэш результата запроса (служебное)",
          "required" : false,
          "type" : "string",
          "pattern" : "^[a-f0-9{40}]+$"
        }, {
          "name" : "ics-cache-timeout",
          "in" : "header",
          "description" : "таймаут кэширования в минутах (служебное)",
          "required" : false,
          "type" : "integer",
          "minimum" : 0,
          "exclusiveMinimum" : true,
          "format" : "int32"
        } ],
        "responses" : {
          "200" : {
            "description" : "Ответ вернулся из кэша",
            "headers" : {
              "ics-cache-hash" : {
                "type" : "string",
                "description" : "sha1-хэш запроса (служебное)",
                "pattern" : "^[a-f0-9{40}]+$"
              },
              "ics-cache-hashresult" : {
                "type" : "string",
                "description" : "sha1-хэш результата запроса (служебное)",
                "pattern" : "^[a-f0-9{40}]+$"
              },
              "ics-cache-timeout" : {
                "type" : "integer",
                "format" : "int32",
                "description" : "таймаут кэширования в минутах (служебное)",
                "minimum" : 0,
                "exclusiveMinimum" : true
              }
            },
            "schema" : {
              "type" : "array",
              "items" : {
                "$ref" : "#/definitions/Mongodoc"
              }
            }
          },
          "201" : {
            "description" : "Ответ вернулся из кэша (данные обновлены)",
            "headers" : {
              "ics-cache-hash" : {
                "type" : "string",
                "description" : "sha1-хэш запроса (служебное)",
                "pattern" : "^[a-f0-9{40}]+$"
              },
              "ics-cache-hashresult" : {
                "type" : "string",
                "description" : "sha1-хэш результата запроса (служебное)",
                "pattern" : "^[a-f0-9{40}]+$"
              },
              "ics-cache-timeout" : {
                "type" : "integer",
                "format" : "int32",
                "description" : "таймаут кэширования в минутах (служебное)",
                "minimum" : 0,
                "exclusiveMinimum" : true
              }
            },
            "schema" : {
              "type" : "array",
              "items" : {
                "$ref" : "#/definitions/Mongodoc"
              }
            }
          },
          "204" : {
            "description" : "Запрос в базу вернулся пустым (данных нет)",
            "headers" : {
              "ics-cache-hash" : {
                "type" : "string",
                "description" : "sha1-хэш запроса (служебное)",
                "pattern" : "^[a-f0-9{40}]+$"
              },
              "ics-cache-hashresult" : {
                "type" : "string",
                "description" : "sha1-хэш результата запроса (служебное)",
                "pattern" : "^[a-f0-9{40}]+$"
              },
              "ics-cache-timeout" : {
                "type" : "integer",
                "format" : "int32",
                "description" : "таймаут кэширования в минутах (служебное)",
                "minimum" : 0,
                "exclusiveMinimum" : true
              }
            },
            "schema" : {
              "$ref" : "#/definitions/204"
            }
          },
          "206" : {
            "description" : "Запрос уже выполняется (данные пока не полные)",
            "headers" : {
              "ics-cache-hash" : {
                "type" : "string",
                "description" : "sha1-хэш запроса (служебное)",
                "pattern" : "^[a-f0-9{40}]+$"
              },
              "ics-cache-hashresult" : {
                "type" : "string",
                "description" : "sha1-хэш результата запроса (служебное)",
                "pattern" : "^[a-f0-9{40}]+$"
              },
              "ics-cache-timeout" : {
                "type" : "integer",
                "format" : "int32",
                "description" : "таймаут кэширования в минутах (служебное)",
                "minimum" : 0,
                "exclusiveMinimum" : true
              }
            },
            "schema" : {
              "$ref" : "#/definitions/206"
            }
          },
          "208" : {
            "description" : "Данные не изменились и переданы не будут",
            "headers" : {
              "ics-cache-hash" : {
                "type" : "string",
                "description" : "sha1-хэш запроса (служебное)",
                "pattern" : "^[a-f0-9{40}]+$"
              },
              "ics-cache-hashresult" : {
                "type" : "string",
                "description" : "sha1-хэш результата запроса (служебное)",
                "pattern" : "^[a-f0-9{40}]+$"
              },
              "ics-cache-timeout" : {
                "type" : "integer",
                "format" : "int32",
                "description" : "таймаут кэширования в минутах (служебное)",
                "minimum" : 0,
                "exclusiveMinimum" : true
              }
            },
            "schema" : {
              "$ref" : "#/definitions/208"
            }
          },
          "400" : {
            "description" : "Некорректный запрос",
            "schema" : {
              "$ref" : "#/definitions/400"
            }
          },
          "405" : {
            "description" : "Метод не поддерживается",
            "schema" : {
              "$ref" : "#/definitions/405"
            }
          },
          "417" : {
            "description" : "Запрос в базу данных возвращен с ошибкой",
            "schema" : {
              "$ref" : "#/definitions/417"
            }
          },
          "500" : {
            "description" : "Ошибка сервера (подробнее смотреть в логе сервера)",
            "schema" : {
              "$ref" : "#/definitions/500"
            }
          }
        },
        "security" : [ {
          "basicAuth" : [ ]
        } ]
      }
    },
    "/v3/data" : {
      "post" : {
        "tags" : [ "v3" ],
        "summary" : "Выгрузка данных в iRetailCloudServer",
        "operationId" : "v3_data",
        "consumes" : [ "application/json" ],
        "produces" : [ "application/json" ],
        "parameters" : [ {
          "in" : "body",
          "name" : "body",
          "description" : "Массив загружаемых документов json",
          "required" : true,
          "schema" : {
            "type" : "array",
            "items" : {
              "$ref" : "#/definitions/Mongodoc2"
            }
          }
        } ],
        "responses" : {
          "200" : {
            "description" : "Данные загружены",
            "schema" : {
              "type" : "object",
              "required" : [ "message", "status" ],
              "properties" : {
                "status" : {
                  "type" : "string",
                  "example" : "ok",
                  "description" : "ok"
                },
                "message" : {
                  "type" : "string",
                  "example" : "completed",
                  "description" : "completed"
                }
              },
              "description" : "Данные загружены"
            }
          },
          "405" : {
            "description" : "Метод не поддерживается",
            "schema" : {
              "$ref" : "#/definitions/405"
            }
          },
          "500" : {
            "description" : "Ошибка сервера (подробнее смотреть в логе сервера)",
            "schema" : {
              "$ref" : "#/definitions/500"
            }
          }
        },
        "security" : [ {
          "basicAuth" : [ ]
        } ]
      },
      "delete" : {
        "tags" : [ "v3" ],
        "summary" : "Удаление данных в iRetailCloudServer",
        "operationId" : "v3_data_1",
        "consumes" : [ "application/json" ],
        "produces" : [ "application/json" ],
        "parameters" : [ {
          "in" : "body",
          "name" : "body",
          "description" : "Массив загружаемых документов json",
          "required" : true,
          "schema" : {
            "type" : "array",
            "items" : {
              "$ref" : "#/definitions/Mongodoc2"
            }
          }
        } ],
        "responses" : {
          "200" : {
            "description" : "Данные загружены",
            "schema" : {
              "type" : "object",
              "required" : [ "message", "status" ],
              "properties" : {
                "status" : {
                  "type" : "string",
                  "example" : "ok",
                  "description" : "ok"
                },
                "message" : {
                  "type" : "string",
                  "example" : "completed",
                  "description" : "completed"
                }
              },
              "description" : "Данные загружены"
            }
          },
          "417" : {
            "description" : "Запрос в базу данных возвращен с ошибкой",
            "schema" : {
              "$ref" : "#/definitions/417"
            }
          },
          "500" : {
            "description" : "Ошибка сервера (подробнее смотреть в логе сервера)",
            "schema" : {
              "$ref" : "#/definitions/500"
            }
          }
        },
        "security" : [ {
          "basicAuth" : [ ]
        } ]
      }
    },
    "/v3/recipe" : {
      "get" : {
        "tags" : [ "v3" ],
        "summary" : "Поиск информации в системе ''Электронный рецепт''",
        "operationId" : "v3_recipe",
        "parameters" : [ {
          "name" : "id",
          "in" : "query",
          "description" : "Номер карты пациента",
          "required" : true,
          "type" : "string",
          "pattern" : "^\\d{16}$"
        } ],
        "responses" : {
          "200" : {
            "description" : "Данные пациента",
            "schema" : {
              "type" : "object",
              "required" : [ "Patient", "Prescriptions" ],
              "properties" : {
                "Patient" : {
                  "$ref" : "#/definitions/inline_response_200_1_Patient"
                },
                "Prescriptions" : {
                  "type" : "array",
                  "description" : "Информация по рецептам и продажам",
                  "items" : {
                    "$ref" : "#/definitions/inline_response_200_1_Prescriptions"
                  }
                }
              },
              "description" : "Данные пациента"
            }
          },
          "204" : {
            "description" : "Пациент не найден",
            "schema" : {
              "$ref" : "#/definitions/204"
            }
          },
          "400" : {
            "description" : "Запрос в систему Электронный рецепт пришел с ошибкой",
            "schema" : {
              "$ref" : "#/definitions/400"
            }
          },
          "500" : {
            "description" : "Ошибка сервера (подробнее смотреть в логе сервера)",
            "schema" : {
              "$ref" : "#/definitions/500"
            }
          }
        },
        "security" : [ {
          "basicAuth" : [ ]
        } ]
      }
    },
    "/v3/bigdata" : {
      "post" : {
        "tags" : [ "v3" ],
        "summary" : "Агрегация данных из iRetailCloudServer",
        "operationId" : "v3_bigdata",
        "consumes" : [ "application/json" ],
        "produces" : [ "application/json" ],
        "parameters" : [ {
          "in" : "body",
          "name" : "body",
          "description" : "Тело поискового запроса в формате json",
          "required" : true,
          "schema" : {
            "$ref" : "#/definitions/Bigdata"
          }
        }, {
          "name" : "ics-cache-hash",
          "in" : "header",
          "description" : "sha1-хэш запроса (служебное)",
          "required" : false,
          "type" : "string",
          "pattern" : "^[a-f0-9{40}]+$"
        }, {
          "name" : "ics-cache-hashresult",
          "in" : "header",
          "description" : "sha1-хэш результата запроса (служебное)",
          "required" : false,
          "type" : "string",
          "pattern" : "^[a-f0-9{40}]+$"
        }, {
          "name" : "ics-cache-timeout",
          "in" : "header",
          "description" : "таймаут кэширования в минутах (служебное)",
          "required" : false,
          "type" : "integer",
          "minimum" : 0,
          "exclusiveMinimum" : true,
          "format" : "int32"
        } ],
        "responses" : {
          "200" : {
            "description" : "Ответ вернулся из кэша",
            "headers" : {
              "ics-cache-hash" : {
                "type" : "string",
                "description" : "sha1-хэш запроса (служебное)",
                "pattern" : "^[a-f0-9{40}]+$"
              },
              "ics-cache-hashresult" : {
                "type" : "string",
                "description" : "sha1-хэш результата запроса (служебное)",
                "pattern" : "^[a-f0-9{40}]+$"
              },
              "ics-cache-timeout" : {
                "type" : "integer",
                "format" : "int32",
                "description" : "таймаут кэширования в минутах (служебное)",
                "minimum" : 0,
                "exclusiveMinimum" : true
              }
            },
            "schema" : {
              "type" : "array",
              "items" : {
                "$ref" : "#/definitions/Bigdatadoc"
              }
            }
          },
          "201" : {
            "description" : "Ответ вернулся из кэша (данные обновлены)",
            "headers" : {
              "ics-cache-hash" : {
                "type" : "string",
                "description" : "sha1-хэш запроса (служебное)",
                "pattern" : "^[a-f0-9{40}]+$"
              },
              "ics-cache-hashresult" : {
                "type" : "string",
                "description" : "sha1-хэш результата запроса (служебное)",
                "pattern" : "^[a-f0-9{40}]+$"
              },
              "ics-cache-timeout" : {
                "type" : "integer",
                "format" : "int32",
                "description" : "таймаут кэширования в минутах (служебное)",
                "minimum" : 0,
                "exclusiveMinimum" : true
              }
            },
            "schema" : {
              "type" : "array",
              "items" : {
                "$ref" : "#/definitions/Bigdatadoc"
              }
            }
          },
          "204" : {
            "description" : "Запрос в базу вернулся пустым (данных нет)",
            "headers" : {
              "ics-cache-hash" : {
                "type" : "string",
                "description" : "sha1-хэш запроса (служебное)",
                "pattern" : "^[a-f0-9{40}]+$"
              },
              "ics-cache-hashresult" : {
                "type" : "string",
                "description" : "sha1-хэш результата запроса (служебное)",
                "pattern" : "^[a-f0-9{40}]+$"
              },
              "ics-cache-timeout" : {
                "type" : "integer",
                "format" : "int32",
                "description" : "таймаут кэширования в минутах (служебное)",
                "minimum" : 0,
                "exclusiveMinimum" : true
              }
            },
            "schema" : {
              "$ref" : "#/definitions/204"
            }
          },
          "206" : {
            "description" : "Запрос уже выполняется (данные пока не полные)",
            "headers" : {
              "ics-cache-hash" : {
                "type" : "string",
                "description" : "sha1-хэш запроса (служебное)",
                "pattern" : "^[a-f0-9{40}]+$"
              },
              "ics-cache-hashresult" : {
                "type" : "string",
                "description" : "sha1-хэш результата запроса (служебное)",
                "pattern" : "^[a-f0-9{40}]+$"
              },
              "ics-cache-timeout" : {
                "type" : "integer",
                "format" : "int32",
                "description" : "таймаут кэширования в минутах (служебное)",
                "minimum" : 0,
                "exclusiveMinimum" : true
              }
            },
            "schema" : {
              "$ref" : "#/definitions/206"
            }
          },
          "208" : {
            "description" : "Данные не изменились и переданы не будут",
            "headers" : {
              "ics-cache-hash" : {
                "type" : "string",
                "description" : "sha1-хэш запроса (служебное)",
                "pattern" : "^[a-f0-9{40}]+$"
              },
              "ics-cache-hashresult" : {
                "type" : "string",
                "description" : "sha1-хэш результата запроса (служебное)",
                "pattern" : "^[a-f0-9{40}]+$"
              },
              "ics-cache-timeout" : {
                "type" : "integer",
                "format" : "int32",
                "description" : "таймаут кэширования в минутах (служебное)",
                "minimum" : 0,
                "exclusiveMinimum" : true
              }
            },
            "schema" : {
              "$ref" : "#/definitions/208"
            }
          },
          "400" : {
            "description" : "Некорректный запрос",
            "schema" : {
              "$ref" : "#/definitions/400"
            }
          },
          "405" : {
            "description" : "Метод не поддерживается",
            "schema" : {
              "$ref" : "#/definitions/405"
            }
          },
          "417" : {
            "description" : "Запрос в базу данных возвращен с ошибкой",
            "schema" : {
              "$ref" : "#/definitions/417"
            }
          },
          "500" : {
            "description" : "Ошибка сервера (подробнее смотреть в логе сервера)",
            "schema" : {
              "$ref" : "#/definitions/500"
            }
          }
        },
        "security" : [ {
          "basicAuth" : [ ]
        } ]
      }
    },
    "/v3/status" : {
      "get" : {
        "tags" : [ "v3" ],
        "summary" : "Проверка состояния сервера",
        "operationId" : "v3_status",
        "parameters" : [ ],
        "responses" : {
          "200" : {
            "description" : "Статус сервера",
            "schema" : {
              "type" : "object",
              "required" : [ "iRetailCloudServer" ],
              "properties" : {
                "iRetailCloudServer" : {
                  "$ref" : "#/definitions/inline_response_200_2_iRetailCloudServer"
                }
              },
              "description" : "Статус сервера"
            }
          },
          "500" : {
            "description" : "Ошибка сервера (подробнее смотреть в логе сервера)",
            "schema" : {
              "$ref" : "#/definitions/500"
            }
          }
        },
        "security" : [ {
          "basicAuth" : [ ]
        } ]
      },
      "post" : {
        "tags" : [ "v3" ],
        "summary" : "Проверка состояния сервера",
        "operationId" : "v3_status_1",
        "parameters" : [ ],
        "responses" : {
          "200" : {
            "description" : "Статус сервера",
            "schema" : {
              "type" : "object",
              "required" : [ "iRetailCloudServer" ],
              "properties" : {
                "iRetailCloudServer" : {
                  "$ref" : "#/definitions/inline_response_200_2_iRetailCloudServer"
                }
              },
              "description" : "Статус сервера"
            }
          },
          "500" : {
            "description" : "Ошибка сервера (подробнее смотреть в логе сервера)",
            "schema" : {
              "$ref" : "#/definitions/500"
            }
          }
        },
        "security" : [ {
          "basicAuth" : [ ]
        } ]
      }
    },
    "/v3/echo" : {
      "post" : {
        "tags" : [ "v3" ],
        "summary" : "ЭХО-сервер",
        "operationId" : "v3_echo",
        "consumes" : [ "application/json" ],
        "produces" : [ "application/json" ],
        "parameters" : [ {
          "in" : "body",
          "name" : "body",
          "description" : "Массив загружаемых документов json",
          "required" : true,
          "schema" : {
            "type" : "array",
            "items" : {
              "$ref" : "#/definitions/Mongodoc2"
            }
          }
        } ],
        "responses" : {
          "200" : {
            "description" : "Ответ вернулся из кэша",
            "schema" : {
              "type" : "array",
              "items" : {
                "$ref" : "#/definitions/Mongodoc"
              }
            }
          },
          "405" : {
            "description" : "Метод не поддерживается",
            "schema" : {
              "$ref" : "#/definitions/405"
            }
          },
          "500" : {
            "description" : "Ошибка сервера (подробнее смотреть в логе сервера)",
            "schema" : {
              "$ref" : "#/definitions/500"
            }
          }
        },
        "security" : [ {
          "basicAuth" : [ ]
        } ]
      }
    },
    "/v1/data" : {
      "post" : {
        "tags" : [ "v1" ],
        "summary" : "Выгрузка данных в iRetailCloudServer",
        "operationId" : "v1_data",
        "consumes" : [ "application/json" ],
        "produces" : [ "application/json" ],
        "parameters" : [ {
          "in" : "body",
          "name" : "body",
          "description" : "Массив загружаемых документов json",
          "required" : true,
          "schema" : {
            "type" : "array",
            "items" : {
              "$ref" : "#/definitions/Mongodoc2"
            }
          }
        } ],
        "responses" : {
          "200" : {
            "description" : "Данные загружены",
            "schema" : {
              "type" : "object",
              "required" : [ "message", "status" ],
              "properties" : {
                "status" : {
                  "type" : "string",
                  "example" : "ok",
                  "description" : "ok"
                },
                "message" : {
                  "type" : "string",
                  "example" : "completed",
                  "description" : "completed"
                }
              },
              "description" : "Данные загружены"
            }
          },
          "405" : {
            "description" : "Метод не поддерживается",
            "schema" : {
              "$ref" : "#/definitions/405"
            }
          },
          "500" : {
            "description" : "Ошибка сервера (подробнее смотреть в логе сервера)",
            "schema" : {
              "$ref" : "#/definitions/500"
            }
          }
        },
        "security" : [ {
          "basicAuth" : [ ]
        } ]
      },
      "delete" : {
        "tags" : [ "v1" ],
        "summary" : "Удаление данных в iRetailCloudServer",
        "operationId" : "v1_data_1",
        "consumes" : [ "application/json" ],
        "produces" : [ "application/json" ],
        "parameters" : [ {
          "in" : "body",
          "name" : "body",
          "description" : "Массив загружаемых документов json",
          "required" : true,
          "schema" : {
            "type" : "array",
            "items" : {
              "$ref" : "#/definitions/Mongodoc2"
            }
          }
        } ],
        "responses" : {
          "200" : {
            "description" : "Данные загружены",
            "schema" : {
              "type" : "object",
              "required" : [ "message", "status" ],
              "properties" : {
                "status" : {
                  "type" : "string",
                  "example" : "ok",
                  "description" : "ok"
                },
                "message" : {
                  "type" : "string",
                  "example" : "completed",
                  "description" : "completed"
                }
              },
              "description" : "Данные загружены"
            }
          },
          "417" : {
            "description" : "Запрос в базу данных возвращен с ошибкой",
            "schema" : {
              "$ref" : "#/definitions/417"
            }
          },
          "500" : {
            "description" : "Ошибка сервера (подробнее смотреть в логе сервера)",
            "schema" : {
              "$ref" : "#/definitions/500"
            }
          }
        },
        "security" : [ {
          "basicAuth" : [ ]
        } ]
      }
    },
    "/v1/recipe" : {
      "get" : {
        "tags" : [ "v1" ],
        "summary" : "Поиск информации в системе ''Электронный рецепт''",
        "operationId" : "v1_recipe",
        "parameters" : [ {
          "name" : "id",
          "in" : "query",
          "description" : "Номер карты пациента",
          "required" : true,
          "type" : "string",
          "pattern" : "^\\d{16}$"
        } ],
        "responses" : {
          "200" : {
            "description" : "Данные пациента",
            "schema" : {
              "type" : "object",
              "required" : [ "Patient", "Prescriptions" ],
              "properties" : {
                "Patient" : {
                  "$ref" : "#/definitions/inline_response_200_3_Patient"
                },
                "Prescriptions" : {
                  "type" : "array",
                  "description" : "Информация по рецептам и продажам",
                  "items" : {
                    "$ref" : "#/definitions/inline_response_200_3_Prescriptions"
                  }
                }
              },
              "description" : "Данные пациента"
            }
          },
          "204" : {
            "description" : "Пациент не найден",
            "schema" : {
              "$ref" : "#/definitions/204"
            }
          },
          "400" : {
            "description" : "Запрос в систему Электронный рецепт пришел с ошибкой",
            "schema" : {
              "$ref" : "#/definitions/400"
            }
          },
          "500" : {
            "description" : "Ошибка сервера (подробнее смотреть в логе сервера)",
            "schema" : {
              "$ref" : "#/definitions/500"
            }
          }
        },
        "security" : [ {
          "basicAuth" : [ ]
        } ]
      }
    }
  },
  "securityDefinitions" : {
    "basicAuth" : {
      "type" : "basic"
    }
  },
  "definitions" : {
    "204" : {
      "description" : "Запрос в базу вернулся пустым (данных нет)"
    },
    "206" : {
      "type" : "object",
      "required" : [ "message", "status" ],
      "properties" : {
        "status" : {
          "type" : "string",
          "example" : "ok",
          "description" : "ok"
        },
        "message" : {
          "type" : "string",
          "example" : "Partial Content",
          "description" : "Partial Content"
        }
      },
      "description" : "Запрос уже выполняется (данные пока не полные)"
    },
    "208" : {
      "type" : "object",
      "required" : [ "message", "status" ],
      "properties" : {
        "status" : {
          "type" : "string",
          "example" : "ok",
          "description" : "ok"
        },
        "message" : {
          "type" : "string",
          "example" : "Already Reported",
          "description" : "Already Reported"
        }
      },
      "description" : "Данные не изменились и переданы не будут"
    },
    "400" : {
      "type" : "object",
      "required" : [ "message", "status" ],
      "properties" : {
        "status" : {
          "type" : "string",
          "example" : "error",
          "description" : "error"
        },
        "message" : {
          "type" : "string",
          "example" : "Bad Request",
          "description" : "Bad Request"
        }
      },
      "description" : "Некоректный запрос"
    },
    "404" : {
      "type" : "object",
      "required" : [ "message", "status" ],
      "properties" : {
        "status" : {
          "type" : "string",
          "example" : "error",
          "description" : "error"
        },
        "message" : {
          "type" : "string",
          "example" : "Not Found",
          "description" : "Not Found"
        }
      },
      "description" : "Некоректный запрос (ссылка не обрабатывается)"
    },
    "405" : {
      "type" : "object",
      "required" : [ "message", "status" ],
      "properties" : {
        "status" : {
          "type" : "string",
          "example" : "error",
          "description" : "error"
        },
        "message" : {
          "type" : "string",
          "example" : "Method Not Allowed",
          "description" : "Method Not Allowed"
        }
      },
      "description" : "Метод не поддерживается (метод не обрабатывается)"
    },
    "417" : {
      "type" : "object",
      "required" : [ "message", "status" ],
      "properties" : {
        "status" : {
          "type" : "string",
          "example" : "error",
          "description" : "error"
        },
        "message" : {
          "type" : "string",
          "example" : "Expectation Failed",
          "description" : "Expectation Failed"
        }
      },
      "description" : "Запрос в базу данных возвращен с ошибкой (кэш не актуален на момент ответа)"
    },
    "500" : {
      "type" : "object",
      "required" : [ "message", "status" ],
      "properties" : {
        "status" : {
          "type" : "string",
          "example" : "error",
          "description" : "error"
        },
        "message" : {
          "type" : "string",
          "example" : "  Internal Server Error",
          "description" : "Internal Server Error"
        }
      },
      "description" : "Ошибка сервера (подробнее смотреть в логе сервера)"
    },
    "Query" : {
      "type" : "object",
      "required" : [ "find" ],
      "properties" : {
        "find" : {
          "type" : "object",
          "example" : {
            "type" : {
              "$eq" : "Справочник.КартыЛояльности"
            }
          },
          "properties" : { }
        },
        "limit" : {
          "type" : "integer",
          "format" : "int32",
          "example" : 100,
          "minimum" : 0,
          "maximum" : 1000000,
          "exclusiveMinimum" : true,
          "exclusiveMaximum" : true
        },
        "skip" : {
          "type" : "integer",
          "format" : "int32",
          "example" : 0,
          "minimum" : 0
        },
        "sort" : {
          "type" : "object",
          "example" : {
            "version" : 1
          },
          "properties" : { }
        },
        "requires" : {
          "type" : "array",
          "example" : [ "type", "guid" ],
          "items" : {
            "type" : "string"
          }
        }
      }
    },
    "Bigdata" : {
      "type" : "array",
      "items" : {
        "type" : "object",
        "properties" : { }
      },
      "example" : [ {
        "$match" : {
          "type" : "Документ.Чек",
          "date" : {
            "$gt" : "2019-05-29",
            "$lt" : "2019-05-30"
          },
          "forbidden" : {
            "$ne" : true
          },
          "requisites" : {
            "$elemMatch" : {
              "id" : "TradePoint_Holding_ID",
              "value" : {
                "$in" : [ "e836984a-ef06-11e2-af2d-782bcb1ff45d" ]
              }
            }
          },
          "$comment" : "iRetailReportService"
        }
      }, {
        "$project" : {
          "date" : {
            "$substr" : [ "$date", 0, 10 ]
          },
          "time" : {
            "$substr" : [ "$date", 11, 8 ]
          },
          "frnum" : "$description",
          "check_uid" : "$guid",
          "requisites" : {
            "$arrayToObject" : {
              "$reduce" : {
                "input" : "$requisites",
                "initialValue" : [ ],
                "in" : {
                  "$concatArrays" : [ "$$value", [ {
                    "k" : "$$this.id",
                    "v" : "$$this.value"
                  } ] ]
                }
              }
            }
          },
          "multilines" : {
            "$arrayToObject" : {
              "$reduce" : {
                "input" : "$multilines",
                "initialValue" : [ ],
                "in" : {
                  "$concatArrays" : [ "$$value", [ {
                    "k" : "$$this.id",
                    "v" : "$$this.lines"
                  } ] ]
                }
              }
            }
          }
        }
      }, {
        "$project" : {
          "date" : "$date",
          "time" : "$time",
          "tradepoint_uid" : "$requisites.TradePoint_Holding_ID",
          "parent_uid" : "$requisites.TradePointParentID",
          "frnum" : "$description",
          "check_uid" : "$check_uid",
          "check_num" : "$requisites.NDocKsa",
          "check_return" : "$requisites.CheckIsReturn",
          "sellername" : "$requisites.SellerName",
          "buyername" : "$requisites.BuyerName",
          "positions" : {
            "$reduce" : {
              "input" : "$multilines.ПозицииЧека",
              "initialValue" : [ ],
              "in" : {
                "$concatArrays" : [ "$$value", [ {
                  "$arrayToObject" : {
                    "$reduce" : {
                      "input" : "$$this.requisites",
                      "initialValue" : [ ],
                      "in" : {
                        "$concatArrays" : [ "$$value", [ {
                          "k" : "$$this.id",
                          "v" : "$$this.value"
                        } ] ]
                      }
                    }
                  }
                } ] ]
              }
            }
          }
        }
      }, {
        "$project" : {
          "date" : "$date",
          "time" : "$time",
          "tradepoint_uid" : "$tradepoint_uid",
          "parent_uid" : "$parent_uid",
          "frnum" : "$frnum",
          "check_uid" : "$check_uid",
          "check_num" : "$check_num",
          "check_return" : "$check_return",
          "sellername" : "$sellername",
          "buyername" : "$buyername",
          "positions" : {
            "$arrayToObject" : {
              "$reduce" : {
                "input" : "$positions",
                "initialValue" : [ ],
                "in" : {
                  "$concatArrays" : [ "$$value", [ {
                    "k" : {
                      "$toLower" : "$$this.PositionsUid"
                    },
                    "v" : "$$this"
                  } ] ]
                }
              }
            }
          }
        }
      } ]
    },
    "Bigdatadoc" : {
      "type" : "object",
      "example" : {
        "_id" : "ObjectId(\"5cee2024d13f7e4b7f5b6952\")",
        "date" : "2019-05-29",
        "time" : "09:00:43",
        "tradepoint_uid" : "e836984a-ef06-11e2-af2d-782bcb1ff45d",
        "parent_uid" : "e23c0228-ef06-11e2-af2d-782bcb1ff45d",
        "check_uid" : "21888586-0fc2-4c1c-82ca-d4c2be2d9a4a",
        "check_num" : "29817",
        "check_return" : false,
        "sellername" : "Мелешко Г.Н.",
        "buyername" : "Социальная 7%",
        "positions" : {
          "843347e9-0cc7-44f2-93cf-9ecf71e5018b" : {
            "Key" : "NumberInt(446643)",
            "Номенклатура" : "794EC438-5DAC-11E4-A5A7-005056B71103",
            "SectionNum" : "NumberInt(1)",
            "Серия" : "10219",
            "СрокГодности" : "2021-02-01T00:00:00",
            "ЦенаБезСкидки" : 2.88,
            "ЦенаСоСкидкой" : 2.68,
            "ЦелоеКоличество" : "NumberInt(1)",
            "ДробноеКоличество" : "NumberInt(0)",
            "ДелимостьНаЧасти" : "NumberInt(2)",
            "ОкругленноеКоличество" : "NumberInt(1)",
            "СуммаБезСкидки" : 2.88,
            "СуммаСоСкидкой" : 2.68,
            "PositionsUid" : "843347E9-0CC7-44F2-93CF-9ECF71E5018B",
            "PatientFio" : "",
            "MedicationDescription" : "",
            "SupplyID" : "4698551",
            "SumPaymentCard" : "NumberInt(0)",
            "SumPaymentCert" : "NumberInt(0)",
            "Premium_Guid" : "d182f813-5dea-11e7-80ea-005056824234",
            "SumPremium" : 0.134,
            "PercentPremium" : "NumberInt(5)",
            "MarketingEvents_Guid" : "eb0767af-a71f-11e6-80da-005056824234",
            "RulesExecutionMarketingEvents_Guid" : "daa7ffca-a71f-11e6-80da-005056824234",
            "AlgoritmRoundId" : "NumberInt(0)",
            "PriceFractionalPart" : 1.44,
            "RecipeType" : "NumberInt(0)",
            "RetailPayment_value" : "NumberInt(0)"
          },
          "065dfa4c-4df2-4f46-aa7f-b680c7f980d5" : {
            "Key" : "NumberInt(446642)",
            "Номенклатура" : "29E34E88-EF13-11E2-AF2D-782BCB1FF45D",
            "SectionNum" : "NumberInt(1)",
            "Серия" : "JA3798",
            "СрокГодности" : "2022-09-01T00:00:00",
            "ЦенаБезСкидки" : 2.98,
            "ЦенаСоСкидкой" : 2.77,
            "ЦелоеКоличество" : "NumberInt(1)",
            "ДробноеКоличество" : "NumberInt(0)",
            "ДелимостьНаЧасти" : "NumberInt(1)",
            "ОкругленноеКоличество" : "NumberInt(1)",
            "СуммаБезСкидки" : 2.98,
            "СуммаСоСкидкой" : 2.77,
            "PositionsUid" : "065DFA4C-4DF2-4F46-AA7F-B680C7F980D5",
            "PatientFio" : "",
            "MedicationDescription" : "",
            "SupplyID" : "4473537",
            "SumPaymentCard" : "NumberInt(0)",
            "SumPaymentCert" : "NumberInt(0)",
            "Premium_Guid" : "48f83ce0-5deb-11e7-80ea-005056824234",
            "SumPremium" : 0.0554,
            "PercentPremium" : "NumberInt(2)",
            "MarketingEvents_Guid" : "eb0767af-a71f-11e6-80da-005056824234",
            "RulesExecutionMarketingEvents_Guid" : "daa7ffca-a71f-11e6-80da-005056824234",
            "AlgoritmRoundId" : "NumberInt(0)",
            "PriceFractionalPart" : 2.98,
            "RecipeType" : "NumberInt(0)",
            "RetailPayment_value" : "NumberInt(0)"
          },
          "d71f3283-90f2-497d-868f-6759556af81d" : {
            "Key" : "NumberInt(446641)",
            "Номенклатура" : "BD159680-EF0B-11E2-AF2D-782BCB1FF45D",
            "SectionNum" : "NumberInt(1)",
            "Серия" : "WM3P",
            "СрокГодности" : "2021-12-01T00:00:00",
            "ЦенаБезСкидки" : 17.66,
            "ЦенаСоСкидкой" : 16.42,
            "ЦелоеКоличество" : "NumberInt(1)",
            "ДробноеКоличество" : "NumberInt(0)",
            "ДелимостьНаЧасти" : "NumberInt(1)",
            "ОкругленноеКоличество" : "NumberInt(1)",
            "СуммаБезСкидки" : 17.66,
            "СуммаСоСкидкой" : 16.42,
            "PositionsUid" : "D71F3283-90F2-497D-868F-6759556AF81D",
            "PatientFio" : "",
            "MedicationDescription" : "",
            "SupplyID" : "4598650",
            "SumPaymentCard" : "NumberInt(0)",
            "SumPaymentCert" : "NumberInt(0)",
            "Premium_Guid" : "48f83ce0-5deb-11e7-80ea-005056824234",
            "SumPremium" : 0.3284,
            "PercentPremium" : "NumberInt(2)",
            "MarketingEvents_Guid" : "eb0767af-a71f-11e6-80da-005056824234",
            "RulesExecutionMarketingEvents_Guid" : "daa7ffca-a71f-11e6-80da-005056824234",
            "AlgoritmRoundId" : "NumberInt(0)",
            "PriceFractionalPart" : 17.66,
            "RecipeType" : "NumberInt(1)",
            "RetailPayment_value" : "NumberInt(0)"
          }
        }
      }
    },
    "Mongodoc" : {
      "type" : "object",
      "required" : [ "guid", "type", "version" ],
      "properties" : {
        "_id" : {
          "type" : "string",
          "example" : "589b5414de1fcc892fee0761",
          "pattern" : "^[a-zA-Z0-9{24}]+$"
        },
        "type" : {
          "type" : "string",
          "example" : "Документ.Чек",
          "minLength" : 1,
          "maxLength" : 100
        },
        "guid" : {
          "type" : "string",
          "example" : "eaa9b52b-21a0-4b0e-85bf-33b4655b9a91",
          "minLength" : 1
        },
        "description" : {
          "type" : "string",
          "example" : "3391825"
        },
        "version" : {
          "type" : "string",
          "example" : "201905310439171156591099000000",
          "pattern" : "^\\d{30}$"
        },
        "isdeleted" : {
          "type" : "boolean",
          "example" : false
        },
        "forbidden" : {
          "type" : "boolean",
          "example" : false
        },
        "parent" : {
          "type" : "string",
          "example" : "601b4c63-ef07-11e2-af2d-782bcb1ff45d"
        },
        "isfolder" : {
          "type" : "boolean",
          "example" : false
        },
        "date" : {
          "type" : "string",
          "example" : "2019-05-31T07:38:12",
          "pattern" : "^\\d\\d\\d\\d-(0?[1-9]|1[0-2])-(0?[1-9]|[12][0-9]|3[01])T(00|[0-9]|1[0-9]|2[0-3]):([0-9]|[0-5][0-9]):([0-9]|[0-5][0-9])$"
        },
        "isactive" : {
          "type" : "boolean",
          "example" : true
        },
        "requisites" : {
          "type" : "array",
          "items" : {
            "$ref" : "#/definitions/Requisite"
          }
        },
        "arrays" : {
          "type" : "array",
          "items" : {
            "$ref" : "#/definitions/Array"
          }
        },
        "multilines" : {
          "type" : "array",
          "items" : {
            "$ref" : "#/definitions/Multiline"
          }
        }
      }
    },
    "Mongodoc2" : {
      "type" : "object",
      "required" : [ "guid", "type", "version" ],
      "properties" : {
        "type" : {
          "type" : "string",
          "example" : "Документ.Чек",
          "minLength" : 1,
          "maxLength" : 100
        },
        "guid" : {
          "type" : "string",
          "example" : "eaa9b52b-21a0-4b0e-85bf-33b4655b9a91",
          "minLength" : 1
        },
        "description" : {
          "type" : "string",
          "example" : "3391825"
        },
        "version" : {
          "type" : "string",
          "example" : "201905310439171156591099000000",
          "pattern" : "^\\d{30}$"
        },
        "isdeleted" : {
          "type" : "boolean",
          "example" : false
        },
        "forbidden" : {
          "type" : "boolean",
          "example" : false
        },
        "parent" : {
          "type" : "string",
          "example" : "601b4c63-ef07-11e2-af2d-782bcb1ff45d"
        },
        "isfolder" : {
          "type" : "boolean",
          "example" : false
        },
        "date" : {
          "type" : "string",
          "example" : "2019-05-31T07:38:12",
          "pattern" : "^\\d\\d\\d\\d-(0?[1-9]|1[0-2])-(0?[1-9]|[12][0-9]|3[01])T(00|[0-9]|1[0-9]|2[0-3]):([0-9]|[0-5][0-9]):([0-9]|[0-5][0-9])$"
        },
        "isactive" : {
          "type" : "boolean",
          "example" : true
        },
        "requisites" : {
          "type" : "array",
          "items" : {
            "$ref" : "#/definitions/Requisite"
          }
        },
        "arrays" : {
          "type" : "array",
          "items" : {
            "$ref" : "#/definitions/Array"
          }
        },
        "multilines" : {
          "type" : "array",
          "items" : {
            "$ref" : "#/definitions/Multiline"
          }
        }
      }
    },
    "Requisite" : {
      "type" : "object",
      "required" : [ "id", "name", "type", "value" ],
      "properties" : {
        "type" : {
          "type" : "string",
          "example" : "Строка",
          "minLength" : 1
        },
        "id" : {
          "type" : "string",
          "example" : "SellerName",
          "minLength" : 1
        },
        "name" : {
          "type" : "string",
          "example" : "SellerName",
          "minLength" : 1
        },
        "value" : {
          "example" : "Маринич И.Б."
        }
      }
    },
    "Array" : {
      "type" : "object",
      "required" : [ "id", "name", "type", "values" ],
      "properties" : {
        "type" : {
          "type" : "string",
          "example" : "Строка",
          "minLength" : 1
        },
        "id" : {
          "type" : "string",
          "example" : "SellerName",
          "minLength" : 1
        },
        "name" : {
          "type" : "string",
          "example" : "SellerName",
          "minLength" : 1
        },
        "values" : {
          "type" : "array",
          "example" : [ "Маринич И.Б." ],
          "items" : { }
        }
      }
    },
    "Multiline" : {
      "type" : "object",
      "required" : [ "id", "lines" ],
      "properties" : {
        "id" : {
          "type" : "string",
          "example" : "Строка",
          "minLength" : 1
        },
        "lines" : {
          "type" : "array",
          "items" : {
            "$ref" : "#/definitions/Multiline_lines"
          }
        }
      }
    },
    "inline_response_200" : {
      "required" : [ "message", "status" ],
      "properties" : {
        "status" : {
          "type" : "string",
          "example" : "ok",
          "description" : "ok"
        },
        "message" : {
          "type" : "string",
          "example" : "completed",
          "description" : "completed"
        }
      },
      "description" : "Данные загружены"
    },
    "inline_response_200_1_Patient" : {
      "properties" : {
        "Id" : {
          "type" : "string",
          "example" : "b811aa77-d57b-49f5-9b97-140c22a3a95e",
          "description" : "Идентификатор пациента",
          "pattern" : "^[0-9a-f]{8}-[0-9a-f]{4}-[1-5][0-9a-f]{3}-[89ab][0-9a-f]{3}-[0-9a-f]{12}$"
        },
        "Name" : {
          "type" : "string",
          "example" : "Иванов Иван Иванович",
          "description" : "ФИО пациента"
        },
        "Gender" : {
          "type" : "string",
          "example" : "male",
          "description" : "Пол",
          "enum" : [ "female", "male" ]
        },
        "BirthDate" : {
          "type" : "string",
          "example" : "1936-10-05",
          "description" : "Дата рождения",
          "pattern" : "^\\d\\d\\d\\d-(0?[1-9]|1[0-2])-(0?[1-9]|[12][0-9]|3[01])$"
        },
        "HomeAddress" : {
          "type" : "string",
          "example" : "Республика Беларусь, 247210, г.Жлобин, ул.Ленинградская, дом № 9Б, кв.3",
          "description" : "Адрес прописки"
        }
      },
      "description" : "Информация о пациенте"
    },
    "inline_response_200_1_Medication" : {
      "properties" : {
        "Code" : {
          "type" : "string",
          "example" : "42883",
          "description" : "Код ЛС"
        },
        "MNN" : {
          "type" : "string",
          "example" : "4001657",
          "description" : "Код ЛС по МНН"
        }
      },
      "description" : "Выписанное ЛС"
    },
    "inline_response_200_1_Medication_1" : {
      "properties" : {
        "Code" : {
          "type" : "string",
          "example" : "42883",
          "description" : "Код ЛС"
        },
        "MNN" : {
          "type" : "string",
          "example" : "4001657",
          "description" : "Код ЛС по МНН"
        }
      },
      "description" : "Информация о реализованном ЛС"
    },
    "inline_response_200_1_Dispenses" : {
      "properties" : {
        "Date" : {
          "type" : "string",
          "example" : "2019-03-04",
          "description" : "Дата реализации",
          "pattern" : "^\\d\\d\\d\\d-(0?[1-9]|1[0-2])-(0?[1-9]|[12][0-9]|3[01])$"
        },
        "Quantity" : {
          "type" : "integer",
          "example" : 1,
          "description" : "Количество реализованных доз",
          "minimum" : 0,
          "exclusiveMinimum" : true
        },
        "Medication" : {
          "$ref" : "#/definitions/inline_response_200_1_Medication_1"
        }
      },
      "description" : "Информация о продаже по рецепту"
    },
    "inline_response_200_1_Prescriptions" : {
      "properties" : {
        "Id" : {
          "type" : "string",
          "example" : "06121988-8001-425f-af04-bffb9b8ebe4d",
          "description" : "Идентификатор рецепта",
          "pattern" : "^[0-9a-f]{8}-[0-9a-f]{4}-[1-5][0-9a-f]{3}-[89ab][0-9a-f]{3}-[0-9a-f]{12}$"
        },
        "DateWritten" : {
          "type" : "string",
          "example" : "2019-03-04",
          "description" : "Дата выдачи рецепта",
          "pattern" : "^\\d\\d\\d\\d-(0?[1-9]|1[0-2])-(0?[1-9]|[12][0-9]|3[01])$"
        },
        "Quantity" : {
          "type" : "integer",
          "format" : "int32",
          "example" : 1,
          "description" : "Количество выписанных доз",
          "minimum" : 0,
          "exclusiveMinimum" : true
        },
        "DosageInstruction" : {
          "type" : "array",
          "items" : {
            "type" : "string",
            "example" : "для обработки кожи",
            "description" : "Рекомендации к использованию"
          }
        },
        "Medication" : {
          "$ref" : "#/definitions/inline_response_200_1_Medication"
        },
        "Dispenses" : {
          "type" : "array",
          "description" : "Информация о продажах по рецепту",
          "items" : {
            "$ref" : "#/definitions/inline_response_200_1_Dispenses"
          }
        },
        "Signature" : {
          "type" : "boolean",
          "example" : true,
          "description" : "Наличие ЭЦП"
        }
      },
      "description" : "Информация по рецепту и продажам"
    },
    "inline_response_200_1" : {
      "required" : [ "Patient", "Prescriptions" ],
      "properties" : {
        "Patient" : {
          "$ref" : "#/definitions/inline_response_200_1_Patient"
        },
        "Prescriptions" : {
          "type" : "array",
          "description" : "Информация по рецептам и продажам",
          "items" : {
            "$ref" : "#/definitions/inline_response_200_1_Prescriptions"
          }
        }
      },
      "description" : "Данные пациента"
    },
    "inline_response_200_2_iRetailCloudServer" : {
      "properties" : {
        "version" : {
          "type" : "string",
          "example" : "3.0.0",
          "description" : "Версия сервера"
        },
        "status" : {
          "type" : "string",
          "example" : "ok",
          "description" : "Состояние сервера"
        },
        "script" : {
          "type" : "string",
          "example" : "process.master.js",
          "description" : "Основной скрипт сервера"
        },
        "processes" : {
          "type" : "integer",
          "example" : 1,
          "description" : "Количество запущенных процессов (мастер + дочерние)",
          "minimum" : 1
        },
        "workers" : {
          "type" : "object",
          "example" : {
            "23489" : {
              "script" : "./process.worker.web.js",
              "status" : "ok"
            }
          },
          "description" : "Дочерние процессы PID: {скрипт, соединение с мастером}",
          "properties" : { }
        },
        "MongoDB" : {
          "type" : "object",
          "example" : {
            "23489" : "ok"
          },
          "description" : "Дочерние процессы: {PID, соединение с MongoDB}",
          "properties" : { }
        },
        "Redis" : {
          "type" : "object",
          "example" : {
            "23489" : "ok"
          },
          "description" : "Дочерние процессы: {PID, соединение с Redis}",
          "properties" : { }
        }
      },
      "description" : "Данные сервера"
    },
    "inline_response_200_2" : {
      "required" : [ "iRetailCloudServer" ],
      "properties" : {
        "iRetailCloudServer" : {
          "$ref" : "#/definitions/inline_response_200_2_iRetailCloudServer"
        }
      },
      "description" : "Статус сервера"
    },
    "inline_response_200_3_Patient" : {
      "properties" : {
        "Id" : {
          "type" : "string",
          "example" : "b811aa77-d57b-49f5-9b97-140c22a3a95e",
          "description" : "Идентификатор пациента",
          "pattern" : "^[0-9a-f]{8}-[0-9a-f]{4}-[1-5][0-9a-f]{3}-[89ab][0-9a-f]{3}-[0-9a-f]{12}$"
        },
        "Name" : {
          "type" : "string",
          "example" : "Иванов Иван Иванович",
          "description" : "ФИО пациента"
        },
        "Gender" : {
          "type" : "string",
          "example" : "male",
          "description" : "Пол",
          "enum" : [ "female", "male" ]
        },
        "BirthDate" : {
          "type" : "string",
          "example" : "1936-10-05",
          "description" : "Дата рождения",
          "pattern" : "^\\d\\d\\d\\d-(0?[1-9]|1[0-2])-(0?[1-9]|[12][0-9]|3[01])$"
        }
      },
      "description" : "Информация о пациенте"
    },
    "inline_response_200_3_Prescriptions" : {
      "properties" : {
        "Id" : {
          "type" : "string",
          "example" : "06121988-8001-425f-af04-bffb9b8ebe4d",
          "description" : "Идентификатор рецепта",
          "pattern" : "^[0-9a-f]{8}-[0-9a-f]{4}-[1-5][0-9a-f]{3}-[89ab][0-9a-f]{3}-[0-9a-f]{12}$"
        },
        "DateWritten" : {
          "type" : "string",
          "example" : "2019-03-04",
          "description" : "Дата выдачи рецепта",
          "pattern" : "^\\d\\d\\d\\d-(0?[1-9]|1[0-2])-(0?[1-9]|[12][0-9]|3[01])$"
        },
        "Quantity" : {
          "type" : "integer",
          "format" : "int32",
          "example" : 1,
          "description" : "Количество выписанных доз",
          "minimum" : 0,
          "exclusiveMinimum" : true
        },
        "DosageInstruction" : {
          "type" : "array",
          "items" : {
            "type" : "string",
            "example" : "для обработки кожи",
            "description" : "Рекомендации к использованию"
          }
        },
        "Medication" : {
          "$ref" : "#/definitions/inline_response_200_1_Medication"
        },
        "Dispenses" : {
          "type" : "array",
          "description" : "Информация о продажах по рецепту",
          "items" : {
            "$ref" : "#/definitions/inline_response_200_1_Dispenses"
          }
        }
      },
      "description" : "Информация по рецепту и продажам"
    },
    "inline_response_200_3" : {
      "required" : [ "Patient", "Prescriptions" ],
      "properties" : {
        "Patient" : {
          "$ref" : "#/definitions/inline_response_200_3_Patient"
        },
        "Prescriptions" : {
          "type" : "array",
          "description" : "Информация по рецептам и продажам",
          "items" : {
            "$ref" : "#/definitions/inline_response_200_3_Prescriptions"
          }
        }
      },
      "description" : "Данные пациента"
    },
    "Multiline_lines" : {
      "properties" : {
        "requisites" : {
          "type" : "array",
          "items" : {
            "$ref" : "#/definitions/Requisite"
          }
        }
      }
    }
  },
  "externalDocs" : {
    "description" : "Документация",
    "url" : "https://cs2.farmin.by/readme"
  }
}